EpiRhandbook auf Deutsch - 13 Daten gruppieren
…
Die Funktion group_by() von dplyr gruppiert die Zeilen nach den eindeutigen Werten in der angegebenen Spalte. Wenn mehrere Spalten angegeben sind, werden die Zeilen nach den eindeutigen Wertekombinationen der Spalten gruppiert. Jeder eindeutige Wert (oder jede Kombination von Werten) bildet eine Gruppe. Spätere Änderungen am Datensatz oder Berechnungen können dann im Kontext der einzelnen Gruppen durchgeführt werden.

Der folgende Befehl nimmt zum Beispiel die linelist und gruppiert die Zeilen nach eindeutigen Werten in der Spalte outcome und speichert die Ausgabe als neuen Datenrahmen ll_by_outcome. Die Gruppierungsspalte(n) werden innerhalb der Klammern der Funktion platziert group_by().

ll_by_outcome <- linelist %>% 
  group_by(outcome)

Beachten Sie, dass sich der Datensatz nicht merklich verändert nach der Ausführung group_by(), bis eine andere dplyr Verb wie zum Beispiel mutate(), summarise(), oder arrange() wird auf den “gruppierten” Datenrahmen angewendet.

Du kannst die Gruppierungen jedoch “sehen”, wenn du den Datenrahmen druckst. Wenn du einen gruppierten Datenrahmen ausdruckst, wirst du sehen, dass er in ein Feld umgewandelt wurde. tibble Klassenobjekt umgewandelt, das beim Drucken anzeigt, welche Gruppierungen angewendet wurden und wie viele Gruppen es gibt - direkt über der Kopfzeile.

# print to see which groups are active
ll_by_outcome

# A tibble: 5,888 × 30
# Groups:   outcome [3]
   case_id generation date_infection date_onset date_hospitalisation
   <chr>        <dbl> <date>         <date>     <date>              
 1 5fe599           4 2014-05-08     2014-05-13 2014-05-15          
 2 8689b7           4 NA             2014-05-13 2014-05-14          
 3 11f8ea           2 NA             2014-05-16 2014-05-18          
 4 b8812a           3 2014-05-04     2014-05-18 2014-05-20          
 5 893f25           3 2014-05-18     2014-05-21 2014-05-22          
 6 be99c8           3 2014-05-03     2014-05-22 2014-05-23          
 7 07e3e8           4 2014-05-22     2014-05-27 2014-05-29          
 8 369449           4 2014-05-28     2014-06-02 2014-06-03          
 9 f393b4           4 NA             2014-06-05 2014-06-06          
10 1389ca           4 NA             2014-06-05 2014-06-07          
# ℹ 5,878 more rows
# ℹ 25 more variables: date_outcome <date>, outcome <chr>, gender <chr>,
#   age <dbl>, age_unit <chr>, age_years <dbl>, age_cat <fct>, age_cat5 <fct>,
#   hospital <chr>, lon <dbl>, lat <dbl>, infector <chr>, source <chr>,
#   wt_kg <dbl>, ht_cm <dbl>, ct_blood <dbl>, fever <chr>, chills <chr>,
#   cough <chr>, aches <chr>, vomit <chr>, temp <dbl>, time_admission <chr>,
#   bmi <dbl>, days_onset_hosp <dbl>
…
Zählungen hinzufügen

Im Gegensatz zu count() und summarise() kannst du verwenden add_count() zu hinzufügen eine neue Spalte n mit der Anzahl der Zeilen pro Gruppe während alle anderen Spalten des Datenrahmens beibehalten werden.

Das bedeutet, dass die Zählnummer einer Gruppe in der neuen Spalte n in jeder Zeile der Gruppe gedruckt wird. Zur Veranschaulichung fügen wir diese Spalte hinzu und ordnen die Spalten dann zur besseren Übersicht neu an. Siehe den Abschnitt unten über Filter auf Gruppengröße für ein weiteres Beispiel.

linelist %>% 
  as_tibble() %>%                   # convert to tibble for nicer printing 
  add_count(hospital) %>%           # add column n with counts by hospital
  select(hospital, n, everything()) # re-arrange for demo purposes

# A tibble: 5,888 × 31
   hospital                       n case_id generation date_infection date_onset
   <chr>                      <int> <chr>        <dbl> <date>         <date>    
 1 Other                        885 5fe599           4 2014-05-08     2014-05-13
 2 Missing                     1469 8689b7           4 NA             2014-05-13
 3 St. Mark's Maternity Hosp…   422 11f8ea           2 NA             2014-05-16
 4 Port Hospital               1762 b8812a           3 2014-05-04     2014-05-18
 5 Military Hospital            896 893f25           3 2014-05-18     2014-05-21
 6 Port Hospital               1762 be99c8           3 2014-05-03     2014-05-22
 7 Missing                     1469 07e3e8           4 2014-05-22     2014-05-27
 8 Missing                     1469 369449           4 2014-05-28     2014-06-02
 9 Missing                     1469 f393b4           4 NA             2014-06-05
10 Missing                     1469 1389ca           4 NA             2014-06-05
# ℹ 5,878 more rows
# ℹ 25 more variables: date_hospitalisation <date>, date_outcome <date>,
#   outcome <chr>, gender <chr>, age <dbl>, age_unit <chr>, age_years <dbl>,
#   age_cat <fct>, age_cat5 <fct>, lon <dbl>, lat <dbl>, infector <chr>,
#   source <chr>, wt_kg <dbl>, ht_cm <dbl>, ct_blood <dbl>, fever <chr>,
#   chills <chr>, cough <chr>, aches <chr>, vomit <chr>, temp <dbl>,
#   time_admission <chr>, bmi <dbl>, days_onset_hosp <dbl>
…
Gruppiere die Zeilenliste nach Spalte hospital

Ordne die Datensätze vom jüngsten zum frühesten an date_hospitalisation innerhalb jeder Krankenhausgruppe

Schneide, um die ersten 5 Zeilen von jedem Krankenhaus abzurufen

linelist %>%
  group_by(hospital) %>%
  arrange(hospital, date_hospitalisation) %>%
  slice_head(n = 5) %>% 
  arrange(hospital) %>%                            # for display
  select(case_id, hospital, date_hospitalisation)  # for display

# A tibble: 30 × 3
# Groups:   hospital [6]
   case_id hospital          date_hospitalisation
   <chr>   <chr>             <date>              
 1 20b688  Central Hospital  2014-05-06          
 2 d58402  Central Hospital  2014-05-10          
 3 b8f2fd  Central Hospital  2014-05-13          
 4 acf422  Central Hospital  2014-05-28          
 5 275cc7  Central Hospital  2014-05-28          
 6 d1fafd  Military Hospital 2014-04-17          
 7 974bc1  Military Hospital 2014-05-13          
 8 6a9004  Military Hospital 2014-05-13          
 9 09e386  Military Hospital 2014-05-14          
10 865581  Military Hospital 2014-05-15          
# ℹ 20 more rows
…
Siehe die [De-Duplizierung] Seite für weitere Beispiele und Details zuslice().

13.8.1 Filter nach Gruppengröße {#group_filter_grp_size .unnumbered}

Die Funktion add_count() fügt eine Spalte hinzu n zu den Originaldaten hinzu, die die Anzahl der Zeilen in der Gruppe dieser Zeile angibt.

Unten abgebildet, add_count() wird auf die Spalte hospital angewendet, so dass die Werte in der neuen Spalte n die Anzahl der Zeilen in der Krankenhausgruppe dieser Zeile widerspiegeln. Beachte, wie die Werte in der Spalte n wiederholt werden. Im folgenden Beispiel wird der Spaltenname n geändert werden mit name = innerhalb von add_count(). Zu Demonstrationszwecken ordnen wir die Spalten neu an mit select().

linelist %>% 
  as_tibble() %>% 
  add_count(hospital) %>%          # add "number of rows admitted to same hospital as this row" 
  select(hospital, n, everything())

# A tibble: 5,888 × 31
   hospital                       n case_id generation date_infection date_onset
   <chr>                      <int> <chr>        <dbl> <date>         <date>    
 1 Other                        885 5fe599           4 2014-05-08     2014-05-13
 2 Missing                     1469 8689b7           4 NA             2014-05-13
 3 St. Mark's Maternity Hosp…   422 11f8ea           2 NA             2014-05-16
 4 Port Hospital               1762 b8812a           3 2014-05-04     2014-05-18
 5 Military Hospital            896 893f25           3 2014-05-18     2014-05-21
 6 Port Hospital               1762 be99c8           3 2014-05-03     2014-05-22
 7 Missing                     1469 07e3e8           4 2014-05-22     2014-05-27
 8 Missing                     1469 369449           4 2014-05-28     2014-06-02
 9 Missing                     1469 f393b4           4 NA             2014-06-05
10 Missing                     1469 1389ca           4 NA             2014-06-05
# ℹ 5,878 more rows
# ℹ 25 more variables: date_hospitalisation <date>, date_outcome <date>,
#   outcome <chr>, gender <chr>, age <dbl>, age_unit <chr>, age_years <dbl>,
#   age_cat <fct>, age_cat5 <fct>, lon <dbl>, lat <dbl>, infector <chr>,
#   source <chr>, wt_kg <dbl>, ht_cm <dbl>, ct_blood <dbl>, fever <chr>,
#   chills <chr>, cough <chr>, aches <chr>, vomit <chr>, temp <dbl>,
#   time_admission <chr>, bmi <dbl>, days_onset_hosp <dbl>
…
  # new columns
  mutate(
    # mean days to admission per hospital (rounded to 1 decimal)
    group_delay_admit = round(mean(days_onset_hosp, na.rm=T), 1),
    
    # difference between row's delay and mean delay at their hospital (rounded to 1 decimal)
    diff_to_group     = round(days_onset_hosp - group_delay_admit, 1)) %>%
  
  # select certain rows only - for demonstration/viewing purposes
  select(case_id, hospital, days_onset_hosp, group_delay_admit, diff_to_group)

# A tibble: 5,888 × 5
# Groups:   hospital [6]
   case_id hospital              days_onset_hosp group_delay_admit diff_to_group
   <chr>   <chr>                           <dbl>             <dbl>         <dbl>
 1 5fe599  Other                               2               2             0  
 2 8689b7  Missing                             1               2.1          -1.1
 3 11f8ea  St. Mark's Maternity…               2               2.1          -0.1
 4 b8812a  Port Hospital                       2               2.1          -0.1
 5 893f25  Military Hospital                   1               2.1          -1.1
 6 be99c8  Port Hospital                       1               2.1          -1.1
 7 07e3e8  Missing                             2               2.1          -0.1
 8 369449  Missing                             1               2.1          -1.1
 9 f393b4  Missing                             1               2.1          -1.1
10 1389ca  Missing                             2               2.1          -0.1
# ℹ 5,878 more rows
…
