EpiRhandbook auf Deutsch - 43 Dashboards mit Shiny
…
Laden wir zunächst unsere Daten. Da wir mit einem neuen Projekt arbeiten und es sauber machen wollen, können wir ein neues Verzeichnis mit dem Namen data erstellen und dort unsere Malaria-Daten hinzufügen. Wir können diesen Code unten in einem Testskript ausführen, das wir später löschen, wenn wir die Struktur unserer App bereinigt haben.

pacman::p_load("tidyverse", "lubridate")

# read data
malaria_data <- rio::import(here::here("data", "malaria_facility_count_data.rds")) %>% 
  as_tibble()

print(malaria_data)

# A tibble: 3,038 × 10
   location_name data_date  submitted_date Province District `malaria_rdt_0-4`
   <chr>         <date>     <date>         <chr>    <chr>                <int>
 1 Facility 1    2020-08-11 2020-08-12     North    Spring                  11
 2 Facility 2    2020-08-11 2020-08-12     North    Bolo                    11
 3 Facility 3    2020-08-11 2020-08-12     North    Dingo                    8
 4 Facility 4    2020-08-11 2020-08-12     North    Bolo                    16
 5 Facility 5    2020-08-11 2020-08-12     North    Bolo                     9
 6 Facility 6    2020-08-11 2020-08-12     North    Dingo                    3
 7 Facility 6    2020-08-10 2020-08-12     North    Dingo                    4
 8 Facility 5    2020-08-10 2020-08-12     North    Bolo                    15
 9 Facility 5    2020-08-09 2020-08-12     North    Bolo                    11
10 Facility 5    2020-08-08 2020-08-12     North    Bolo                    19
# ℹ 3,028 more rows
# ℹ 4 more variables: `malaria_rdt_5-14` <int>, malaria_rdt_15 <int>,
#   malaria_tot <int>, newid <int>

Es wird einfacher sein, mit diesen Daten zu arbeiten, wenn wir ordentliche Datenstandards verwenden, also sollten wir sie auch in ein längeres Datenformat umwandeln, in dem die Altersgruppe eine Spalte und die Fälle eine weitere Spalte sind. Das können wir ganz einfach mit dem machen, was wir im Kurs [Daten spiegeln] Seite gelernt haben.

malaria_data <- malaria_data %>%
  select(-newid) %>%
  pivot_longer(cols = starts_with("malaria_"), names_to = "age_group", values_to = "cases_reported")

print(malaria_data)

# A tibble: 12,152 × 7
   location_name data_date  submitted_date Province District age_group       
   <chr>         <date>     <date>         <chr>    <chr>    <chr>           
 1 Facility 1    2020-08-11 2020-08-12     North    Spring   malaria_rdt_0-4 
 2 Facility 1    2020-08-11 2020-08-12     North    Spring   malaria_rdt_5-14
 3 Facility 1    2020-08-11 2020-08-12     North    Spring   malaria_rdt_15  
 4 Facility 1    2020-08-11 2020-08-12     North    Spring   malaria_tot     
 5 Facility 2    2020-08-11 2020-08-12     North    Bolo     malaria_rdt_0-4 
 6 Facility 2    2020-08-11 2020-08-12     North    Bolo     malaria_rdt_5-14
 7 Facility 2    2020-08-11 2020-08-12     North    Bolo     malaria_rdt_15  
 8 Facility 2    2020-08-11 2020-08-12     North    Bolo     malaria_tot     
 9 Facility 3    2020-08-11 2020-08-12     North    Dingo    malaria_rdt_0-4 
10 Facility 3    2020-08-11 2020-08-12     North    Dingo    malaria_rdt_5-14
# ℹ 12,142 more rows
# ℹ 1 more variable: cases_reported <int>
…
# data frame of location names by district
facility_list <- malaria_data %>%
  group_by(location_name, District) %>%
  summarise() %>% 
  ungroup()

Schauen wir sie uns an:

all_districts

[1] "All"     "Spring"  "Bolo"    "Dingo"   "Barnard"

facility_list

# A tibble: 65 × 2
   location_name District
   <chr>         <chr>   
 1 Facility 1    Spring  
 2 Facility 10   Bolo    
 3 Facility 11   Spring  
 4 Facility 12   Dingo   
 5 Facility 13   Bolo    
 6 Facility 14   Dingo   
 7 Facility 15   Barnard 
 8 Facility 16   Barnard 
 9 Facility 17   Barnard 
10 Facility 18   Bolo    
# ℹ 55 more rows
…
